A20406960_MavaniBrijesh_Assignment4Practicum.r
…
lsh_probability(h = 240, b =  80, s = 0.3)

## [1] 0.8880492

# (e) At 240 signatures (or hashes) we want a probability of 0.888 of getting a candidate pair in at least one band at a Jaccard similarity of 0.3 and above. How many bands will you need to get such a probability?
# Ans: We will need 80 bands to get a probability of 0.888 of getting a candidate pair in at least one band at a Jaccard similarity of 0.3 and above. 

# Run LSH and find candidate pairs
buckets <- lsh(corpus, bands = 80)
candidates <- lsh_candidates(buckets)
candidates

## # A tibble: 69 x 3
##             a          b score
##         <chr>      <chr> <dbl>
##  1 g0pA_taskb orig_taskb    NA
##  2 g0pA_taskc g0pB_taskc    NA
##  3 g0pA_taskc g4pB_taskc    NA
##  4 g0pA_taskc orig_taskc    NA
##  5 g0pA_taske g2pE_taske    NA
##  6 g0pB_taskc orig_taskc    NA
##  7 g0pB_taskd g3pA_taskd    NA
##  8 g0pB_taskd g4pC_taskd    NA
##  9 g0pB_taskd orig_taskd    NA
## 10 g0pC_taskd g1pA_taskd    NA
## # ... with 59 more rows
…
